{
    "inputMessageMetadata": {
        "messagePayload": {
            "connectorName": "#_custom_mule_metadata_type_#",
            "typeId": "client_request_data_input"
        }
    },
    "outputMessageMetadata": {
        "messagePayload": {
            "connectorName": "#_custom_mule_metadata_type_#",
            "typeId": "client_request_data_input"
        },
        "flowVariables": {
            "client_request_payload": {
                "connectorName": "#_custom_mule_metadata_type_#",
                "typeId": "client_request_data_input"
            }
        }
    },
    "id": "bf023b85-8f95-4bd0-ae2e-8f1fb4783e12",
    "version": "5.2.0.0"
}