/Users/rizalynbalmeo/AnypointStudio/workspace/spectre-api/src/main/java/spectre/utils/UnixTimestamp.java
/Users/rizalynbalmeo/AnypointStudio/workspace/spectre-api/src/main/java/spectre/connector/DynamoDbConnector.java
/Users/rizalynbalmeo/AnypointStudio/workspace/spectre-api/src/main/java/spectre/utils/Hashing.java
